%YAML 1.1
%TAG !u! tag:unity3d.com,2011:
--- !u!74 &7400000
AnimationClip:
  m_ObjectHideFlags: 0
  m_CorrespondingSourceObject: {fileID: 0}
  m_PrefabInstance: {fileID: 0}
  m_PrefabAsset: {fileID: 0}
  m_Name: Iddle
  serializedVersion: 6
  m_Legacy: 0
  m_Compressed: 0
  m_UseHighQualityCurve: 1
  m_RotationCurves: []
  m_CompressedRotationCurves: []
  m_EulerCurves: []
  m_PositionCurves: []
  m_ScaleCurves: []
  m_FloatCurves: []
  m_PPtrCurves:
  - curve:
    - time: 0
      value: {fileID: 21300000, guid: 92ebc148807254546a25f49757547443, type: 3}
    - time: 0.083333336
      value: {fileID: 21300000, guid: e3dae5c511343474a9aabfa1255ff562, type: 3}
    - time: 0.16666667
      value: {fileID: 21300000, guid: c740c43ebca16f14894ce9add48a3c73, type: 3}
    - time: 0.25
      value: {fileID: 21300000, guid: 52b3378e5d1066347b22f77ef1e6d3cc, type: 3}
    - time: 0.31666666
      value: {fileID: 21300000, guid: cddc558b2670db4489372fca764e63c5, type: 3}
    - time: 0.4
      value: {fileID: 21300000, guid: a8b3414791558ae4d9c0b30a316e20ce, type: 3}
    - time: 0.48333332
      value: {fileID: 21300000, guid: 2ddc756e687c3de49a76a94fcab6aca1, type: 3}
    - time: 0.56666666
      value: {fileID: 21300000, guid: df83666fa06f4c449a253cc78ef70e80, type: 3}
    attribute: m_Sprite
    path: 
    classID: 212
    script: {fileID: 0}
  m_SampleRate: 60
  m_WrapMode: 0
  m_Bounds:
    m_Center: {x: 0, y: 0, z: 0}
    m_Extent: {x: 0, y: 0, z: 0}
  m_ClipBindingConstant:
    genericBindings:
    - serializedVersion: 2
      path: 0
      attribute: 0
      script: {fileID: 0}
      typeID: 212
      customType: 23
      isPPtrCurve: 1
    pptrCurveMapping:
    - {fileID: 21300000, guid: 92ebc148807254546a25f49757547443, type: 3}
    - {fileID: 21300000, guid: e3dae5c511343474a9aabfa1255ff562, type: 3}
    - {fileID: 21300000, guid: c740c43ebca16f14894ce9add48a3c73, type: 3}
    - {fileID: 21300000, guid: 52b3378e5d1066347b22f77ef1e6d3cc, type: 3}
    - {fileID: 21300000, guid: cddc558b2670db4489372fca764e63c5, type: 3}
    - {fileID: 21300000, guid: a8b3414791558ae4d9c0b30a316e20ce, type: 3}
    - {fileID: 21300000, guid: 2ddc756e687c3de49a76a94fcab6aca1, type: 3}
    - {fileID: 21300000, guid: df83666fa06f4c449a253cc78ef70e80, type: 3}
  m_AnimationClipSettings:
    serializedVersion: 2
    m_AdditiveReferencePoseClip: {fileID: 0}
    m_AdditiveReferencePoseTime: 0
    m_StartTime: 0
    m_StopTime: 0.5833333
    m_OrientationOffsetY: 0
    m_Level: 0
    m_CycleOffset: 0
    m_HasAdditiveReferencePose: 0
    m_LoopTime: 1
    m_LoopBlend: 0
    m_LoopBlendOrientation: 0
    m_LoopBlendPositionY: 0
    m_LoopBlendPositionXZ: 0
    m_KeepOriginalOrientation: 0
    m_KeepOriginalPositionY: 1
    m_KeepOriginalPositionXZ: 0
    m_HeightFromFeet: 0
    m_Mirror: 0
  m_EditorCurves: []
  m_EulerEditorCurves: []
  m_HasGenericRootTransform: 0
  m_HasMotionFloatCurves: 0
  m_Events: []
