%YAML 1.1
%TAG !u! tag:unity3d.com,2011:
--- !u!74 &7400000
AnimationClip:
  m_ObjectHideFlags: 0
  m_CorrespondingSourceObject: {fileID: 0}
  m_PrefabInstance: {fileID: 0}
  m_PrefabAsset: {fileID: 0}
  m_Name: Run
  serializedVersion: 6
  m_Legacy: 0
  m_Compressed: 0
  m_UseHighQualityCurve: 1
  m_RotationCurves: []
  m_CompressedRotationCurves: []
  m_EulerCurves: []
  m_PositionCurves: []
  m_ScaleCurves: []
  m_FloatCurves: []
  m_PPtrCurves:
  - curve:
    - time: 0
      value: {fileID: 21300000, guid: 66ef98c2723aaae4ca9e0d5ca22e2eb1, type: 3}
    - time: 0.083333336
      value: {fileID: 21300000, guid: 79e854f87ee662d4e94fb172b2c684c9, type: 3}
    - time: 0.16666667
      value: {fileID: 21300000, guid: a87e65ec6f232154f9569b7a875aad81, type: 3}
    - time: 0.26666668
      value: {fileID: 21300000, guid: abb3c1e4b25761a4bb4abc004a6da91b, type: 3}
    - time: 0.35
      value: {fileID: 21300000, guid: 24a74904ca51ef24d9dc4dd8077eba0a, type: 3}
    - time: 0.43333334
      value: {fileID: 21300000, guid: 10119eec28d864e409f4281993e67baa, type: 3}
    attribute: m_Sprite
    path: 
    classID: 212
    script: {fileID: 0}
  m_SampleRate: 60
  m_WrapMode: 0
  m_Bounds:
    m_Center: {x: 0, y: 0, z: 0}
    m_Extent: {x: 0, y: 0, z: 0}
  m_ClipBindingConstant:
    genericBindings:
    - serializedVersion: 2
      path: 0
      attribute: 0
      script: {fileID: 0}
      typeID: 212
      customType: 23
      isPPtrCurve: 1
    pptrCurveMapping:
    - {fileID: 21300000, guid: 66ef98c2723aaae4ca9e0d5ca22e2eb1, type: 3}
    - {fileID: 21300000, guid: 79e854f87ee662d4e94fb172b2c684c9, type: 3}
    - {fileID: 21300000, guid: a87e65ec6f232154f9569b7a875aad81, type: 3}
    - {fileID: 21300000, guid: abb3c1e4b25761a4bb4abc004a6da91b, type: 3}
    - {fileID: 21300000, guid: 24a74904ca51ef24d9dc4dd8077eba0a, type: 3}
    - {fileID: 21300000, guid: 10119eec28d864e409f4281993e67baa, type: 3}
  m_AnimationClipSettings:
    serializedVersion: 2
    m_AdditiveReferencePoseClip: {fileID: 0}
    m_AdditiveReferencePoseTime: 0
    m_StartTime: 0
    m_StopTime: 0.45000002
    m_OrientationOffsetY: 0
    m_Level: 0
    m_CycleOffset: 0
    m_HasAdditiveReferencePose: 0
    m_LoopTime: 1
    m_LoopBlend: 0
    m_LoopBlendOrientation: 0
    m_LoopBlendPositionY: 0
    m_LoopBlendPositionXZ: 0
    m_KeepOriginalOrientation: 0
    m_KeepOriginalPositionY: 1
    m_KeepOriginalPositionXZ: 0
    m_HeightFromFeet: 0
    m_Mirror: 0
  m_EditorCurves: []
  m_EulerEditorCurves: []
  m_HasGenericRootTransform: 0
  m_HasMotionFloatCurves: 0
  m_Events: []
