%YAML 1.1
%TAG !u! tag:unity3d.com,2011:
--- !u!74 &7400000
AnimationClip:
  m_ObjectHideFlags: 0
  m_CorrespondingSourceObject: {fileID: 0}
  m_PrefabInstance: {fileID: 0}
  m_PrefabAsset: {fileID: 0}
  m_Name: Jump
  serializedVersion: 6
  m_Legacy: 0
  m_Compressed: 0
  m_UseHighQualityCurve: 1
  m_RotationCurves: []
  m_CompressedRotationCurves: []
  m_EulerCurves: []
  m_PositionCurves: []
  m_ScaleCurves: []
  m_FloatCurves: []
  m_PPtrCurves:
  - curve:
    - time: 0
      value: {fileID: 21300000, guid: 8ce70c8f6f3d1b242bece6f86407c67d, type: 3}
    - time: 0.13333334
      value: {fileID: 21300000, guid: aec55483c46864d4691503ede22228f0, type: 3}
    - time: 0.23333333
      value: {fileID: 21300000, guid: e3c94247bd11c3a449b9163bbd9b3b0f, type: 3}
    - time: 0.36666667
      value: {fileID: 21300000, guid: 7b4ce3ab03e94224184a603dee288755, type: 3}
    - time: 0.46666667
      value: {fileID: 21300000, guid: cc59c94a25786b946a8e7aebea9b37a9, type: 3}
    - time: 0.65
      value: {fileID: 21300000, guid: 3c5e5a567f2c6fa4cac97f3065d7dacf, type: 3}
    - time: 0.75
      value: {fileID: 21300000, guid: 3c5e5a567f2c6fa4cac97f3065d7dacf, type: 3}
    - time: 0.8833333
      value: {fileID: 21300000, guid: 8ce70c8f6f3d1b242bece6f86407c67d, type: 3}
    attribute: m_Sprite
    path: 
    classID: 212
    script: {fileID: 0}
  m_SampleRate: 60
  m_WrapMode: 0
  m_Bounds:
    m_Center: {x: 0, y: 0, z: 0}
    m_Extent: {x: 0, y: 0, z: 0}
  m_ClipBindingConstant:
    genericBindings:
    - serializedVersion: 2
      path: 0
      attribute: 0
      script: {fileID: 0}
      typeID: 212
      customType: 23
      isPPtrCurve: 1
    pptrCurveMapping:
    - {fileID: 21300000, guid: 8ce70c8f6f3d1b242bece6f86407c67d, type: 3}
    - {fileID: 21300000, guid: aec55483c46864d4691503ede22228f0, type: 3}
    - {fileID: 21300000, guid: e3c94247bd11c3a449b9163bbd9b3b0f, type: 3}
    - {fileID: 21300000, guid: 7b4ce3ab03e94224184a603dee288755, type: 3}
    - {fileID: 21300000, guid: cc59c94a25786b946a8e7aebea9b37a9, type: 3}
    - {fileID: 21300000, guid: 3c5e5a567f2c6fa4cac97f3065d7dacf, type: 3}
    - {fileID: 21300000, guid: 3c5e5a567f2c6fa4cac97f3065d7dacf, type: 3}
    - {fileID: 21300000, guid: 8ce70c8f6f3d1b242bece6f86407c67d, type: 3}
  m_AnimationClipSettings:
    serializedVersion: 2
    m_AdditiveReferencePoseClip: {fileID: 0}
    m_AdditiveReferencePoseTime: 0
    m_StartTime: 0
    m_StopTime: 0.9
    m_OrientationOffsetY: 0
    m_Level: 0
    m_CycleOffset: 0
    m_HasAdditiveReferencePose: 0
    m_LoopTime: 0
    m_LoopBlend: 0
    m_LoopBlendOrientation: 0
    m_LoopBlendPositionY: 0
    m_LoopBlendPositionXZ: 0
    m_KeepOriginalOrientation: 0
    m_KeepOriginalPositionY: 1
    m_KeepOriginalPositionXZ: 0
    m_HeightFromFeet: 0
    m_Mirror: 0
  m_EditorCurves: []
  m_EulerEditorCurves: []
  m_HasGenericRootTransform: 0
  m_HasMotionFloatCurves: 0
  m_Events: []
