{
    "originalSdkFolder": "D:\\WWise\\SDK",
    "currentVersion": {
        "nickname": "",
        "build": 2602,
        "major": 1,
        "minor": 13,
        "year": 2021
    },
    "installedBundleGroups": [
        {
            "id": "Packages",
            "valueId": "Unity"
        },
        {
            "id": "Packages",
            "valueId": "Extensions"
        },
        {
            "id": "DeploymentPlatforms",
            "valueId": "Mac"
        },
        {
            "id": "DeploymentPlatforms",
            "valueId": "Windows"
        }
    ]
}