%YAML 1.1
%TAG !u! tag:unity3d.com,2011:
--- !u!114 &11400000
MonoBehaviour:
  m_ObjectHideFlags: 0
  m_CorrespondingSourceObject: {fileID: 0}
  m_PrefabInstance: {fileID: 0}
  m_PrefabAsset: {fileID: 0}
  m_GameObject: {fileID: 0}
  m_Enabled: 1
  m_EditorHideFlags: 0
  m_Script: {fileID: 11500000, guid: 0a0991894740b46439e11a8185b808c9, type: 3}
  m_Name: 2C65456C-98B9-4992-A6FE-D03E0182DFA9
  m_EditorClassIdentifier: 
  objectName: Play_circle_enemy_ouch
  id: 153508967
  guid: 2C65456C-98B9-4992-A6FE-D03E0182DFA9
