%YAML 1.1
%TAG !u! tag:unity3d.com,2011:
--- !u!114 &11400000
MonoBehaviour:
  m_ObjectHideFlags: 0
  m_CorrespondingSourceObject: {fileID: 0}
  m_PrefabInstance: {fileID: 0}
  m_PrefabAsset: {fileID: 0}
  m_GameObject: {fileID: 0}
  m_Enabled: 1
  m_EditorHideFlags: 0
  m_Script: {fileID: 11500000, guid: 0a0991894740b46439e11a8185b808c9, type: 3}
  m_Name: 398F8AB5-00AA-4105-BF54-E613D945F1D7
  m_EditorClassIdentifier: 
  objectName: Play_hanged_enemy_death
  id: 3016419867
  guid: 398F8AB5-00AA-4105-BF54-E613D945F1D7
