%YAML 1.1
%TAG !u! tag:unity3d.com,2011:
--- !u!114 &11400000
MonoBehaviour:
  m_ObjectHideFlags: 0
  m_CorrespondingSourceObject: {fileID: 0}
  m_PrefabInstance: {fileID: 0}
  m_PrefabAsset: {fileID: 0}
  m_GameObject: {fileID: 0}
  m_Enabled: 1
  m_EditorHideFlags: 0
  m_Script: {fileID: 11500000, guid: 0a0991894740b46439e11a8185b808c9, type: 3}
  m_Name: 53377705-B0FA-4DE6-ACA7-FD5BDC3FD947
  m_EditorClassIdentifier: 
  objectName: Play_sword
  id: 1191497377
  guid: 53377705-B0FA-4DE6-ACA7-FD5BDC3FD947
