%YAML 1.1
%TAG !u! tag:unity3d.com,2011:
--- !u!114 &11400000
MonoBehaviour:
  m_ObjectHideFlags: 0
  m_CorrespondingSourceObject: {fileID: 0}
  m_PrefabInstance: {fileID: 0}
  m_PrefabAsset: {fileID: 0}
  m_GameObject: {fileID: 0}
  m_Enabled: 1
  m_EditorHideFlags: 0
  m_Script: {fileID: 11500000, guid: 0a0991894740b46439e11a8185b808c9, type: 3}
  m_Name: 8EDC9DEF-2A16-4CB0-8B18-AC4C08D5173E
  m_EditorClassIdentifier: 
  objectName: Play_Ex
  id: 2313189265
  guid: 8EDC9DEF-2A16-4CB0-8B18-AC4C08D5173E
