%YAML 1.1
%TAG !u! tag:unity3d.com,2011:
--- !u!114 &11400000
MonoBehaviour:
  m_ObjectHideFlags: 0
  m_CorrespondingSourceObject: {fileID: 0}
  m_PrefabInstance: {fileID: 0}
  m_PrefabAsset: {fileID: 0}
  m_GameObject: {fileID: 0}
  m_Enabled: 1
  m_EditorHideFlags: 0
  m_Script: {fileID: 11500000, guid: 0a0991894740b46439e11a8185b808c9, type: 3}
  m_Name: B0B347BA-AB91-4C4C-95E7-D2824AAF5B1D
  m_EditorClassIdentifier: 
  objectName: Set_Voice_Volume_mx1
  id: 462605908
  guid: B0B347BA-AB91-4C4C-95E7-D2824AAF5B1D
