%YAML 1.1
%TAG !u! tag:unity3d.com,2011:
--- !u!114 &11400000
MonoBehaviour:
  m_ObjectHideFlags: 0
  m_CorrespondingSourceObject: {fileID: 0}
  m_PrefabInstance: {fileID: 0}
  m_PrefabAsset: {fileID: 0}
  m_GameObject: {fileID: 0}
  m_Enabled: 1
  m_EditorHideFlags: 0
  m_Script: {fileID: 11500000, guid: 0a0991894740b46439e11a8185b808c9, type: 3}
  m_Name: D49A63D7-4AE0-4584-961D-C1A4AA2231F9
  m_EditorClassIdentifier: 
  objectName: UnMute_Zona6
  id: 3955479318
  guid: D49A63D7-4AE0-4584-961D-C1A4AA2231F9
