%YAML 1.1
%TAG !u! tag:unity3d.com,2011:
--- !u!1045 &1
EditorBuildSettings:
  m_ObjectHideFlags: 0
  serializedVersion: 2
  m_Scenes:
  - enabled: 1
    path: Assets/Scenes/Menu.unity
    guid: fd380bfc13800b3428df244673c5d87b
  - enabled: 1
    path: Assets/Scenes/SampleScene.unity
    guid: 8c9cfa26abfee488c85f1582747f6a02
  m_configObjects: {}
