%YAML 1.1
%TAG !u! tag:unity3d.com,2011:
--- !u!74 &7400000
AnimationClip:
  m_ObjectHideFlags: 0
  m_CorrespondingSourceObject: {fileID: 0}
  m_PrefabInstance: {fileID: 0}
  m_PrefabAsset: {fileID: 0}
  m_Name: Eraser
  serializedVersion: 6
  m_Legacy: 0
  m_Compressed: 0
  m_UseHighQualityCurve: 1
  m_RotationCurves: []
  m_CompressedRotationCurves: []
  m_EulerCurves: []
  m_PositionCurves: []
  m_ScaleCurves: []
  m_FloatCurves: []
  m_PPtrCurves:
  - curve:
    - time: 0
      value: {fileID: 21300000, guid: da2f8de6b7fe2374c9d5849ab583d7e2, type: 3}
    - time: 0.033333335
      value: {fileID: 21300000, guid: 75b71954b16e90840bf6981a5e3f8677, type: 3}
    - time: 0.06666667
      value: {fileID: 21300000, guid: c8fce740e5ff26a4a83b5c8b426e9e13, type: 3}
    - time: 0.1
      value: {fileID: 21300000, guid: 1ccdd6c4116943d499525b97ba245154, type: 3}
    - time: 0.13333334
      value: {fileID: 21300000, guid: 1f599612934e6c9498dca04dcb9b7312, type: 3}
    - time: 0.16666667
      value: {fileID: 21300000, guid: 83e873f343fd95a46a27a3480dde42ee, type: 3}
    - time: 0.2
      value: {fileID: 21300000, guid: d431fa494d680d74d9ee256bb1054d11, type: 3}
    - time: 0.23333333
      value: {fileID: 21300000, guid: 7fc16eec7a32078489c2722873926f3f, type: 3}
    - time: 0.26666668
      value: {fileID: 21300000, guid: e44fdd288e82b834aacc62f927e213da, type: 3}
    - time: 0.3
      value: {fileID: 21300000, guid: e44fdd288e82b834aacc62f927e213da, type: 3}
    attribute: m_Sprite
    path: 
    classID: 114
    script: {fileID: 11500000, guid: fe87c0e1cc204ed48ad3b37840f39efc, type: 3}
  m_SampleRate: 60
  m_WrapMode: 0
  m_Bounds:
    m_Center: {x: 0, y: 0, z: 0}
    m_Extent: {x: 0, y: 0, z: 0}
  m_ClipBindingConstant:
    genericBindings:
    - serializedVersion: 2
      path: 0
      attribute: 2015549526
      script: {fileID: 11500000, guid: fe87c0e1cc204ed48ad3b37840f39efc, type: 3}
      typeID: 114
      customType: 0
      isPPtrCurve: 1
    pptrCurveMapping:
    - {fileID: 21300000, guid: da2f8de6b7fe2374c9d5849ab583d7e2, type: 3}
    - {fileID: 21300000, guid: 75b71954b16e90840bf6981a5e3f8677, type: 3}
    - {fileID: 21300000, guid: c8fce740e5ff26a4a83b5c8b426e9e13, type: 3}
    - {fileID: 21300000, guid: 1ccdd6c4116943d499525b97ba245154, type: 3}
    - {fileID: 21300000, guid: 1f599612934e6c9498dca04dcb9b7312, type: 3}
    - {fileID: 21300000, guid: 83e873f343fd95a46a27a3480dde42ee, type: 3}
    - {fileID: 21300000, guid: d431fa494d680d74d9ee256bb1054d11, type: 3}
    - {fileID: 21300000, guid: 7fc16eec7a32078489c2722873926f3f, type: 3}
    - {fileID: 21300000, guid: e44fdd288e82b834aacc62f927e213da, type: 3}
    - {fileID: 21300000, guid: e44fdd288e82b834aacc62f927e213da, type: 3}
  m_AnimationClipSettings:
    serializedVersion: 2
    m_AdditiveReferencePoseClip: {fileID: 0}
    m_AdditiveReferencePoseTime: 0
    m_StartTime: 0
    m_StopTime: 0.3166667
    m_OrientationOffsetY: 0
    m_Level: 0
    m_CycleOffset: 0
    m_HasAdditiveReferencePose: 0
    m_LoopTime: 1
    m_LoopBlend: 0
    m_LoopBlendOrientation: 0
    m_LoopBlendPositionY: 0
    m_LoopBlendPositionXZ: 0
    m_KeepOriginalOrientation: 0
    m_KeepOriginalPositionY: 1
    m_KeepOriginalPositionXZ: 0
    m_HeightFromFeet: 0
    m_Mirror: 0
  m_EditorCurves: []
  m_EulerEditorCurves: []
  m_HasGenericRootTransform: 0
  m_HasMotionFloatCurves: 0
  m_Events: []
