State Group	ID	Name			Wwise Object Path	Notes
	764656370	Zonas			\Default Work Unit\Zonas	

State	ID	Name	State Group			Notes
	748895195	None	Zonas			
	1160234136	Normal	Zonas			
	1560169506	Boss	Zonas			

Audio Bus	ID	Name			Wwise Object Path	Notes
	3803692087	Master Audio Bus			\Default Work Unit\Master Audio Bus	

Audio Devices	ID	Name	Type				Notes
	2317455096	No_Output	No Output			
	3859886410	System	System			

