%YAML 1.1
%TAG !u! tag:unity3d.com,2011:
--- !u!114 &11400000
MonoBehaviour:
  m_ObjectHideFlags: 0
  m_CorrespondingSourceObject: {fileID: 0}
  m_PrefabInstance: {fileID: 0}
  m_PrefabAsset: {fileID: 0}
  m_GameObject: {fileID: 0}
  m_Enabled: 1
  m_EditorHideFlags: 0
  m_Script: {fileID: 11500000, guid: 1f490cc8d107c5b4bbd540e804fb6c3a, type: 3}
  m_Name: ADB1C1A2-C7E9-4585-9FCE-E5BDC35F04B4
  m_EditorClassIdentifier: 
  objectName: Metroidvania
  id: 3408196680
  guid: ADB1C1A2-C7E9-4585-9FCE-E5BDC35F04B4
