%YAML 1.1
%TAG !u! tag:unity3d.com,2011:
--- !u!74 &7400000
AnimationClip:
  m_ObjectHideFlags: 0
  m_CorrespondingSourceObject: {fileID: 0}
  m_PrefabInstance: {fileID: 0}
  m_PrefabAsset: {fileID: 0}
  m_Name: Iddle
  serializedVersion: 6
  m_Legacy: 0
  m_Compressed: 0
  m_UseHighQualityCurve: 1
  m_RotationCurves: []
  m_CompressedRotationCurves: []
  m_EulerCurves: []
  m_PositionCurves: []
  m_ScaleCurves: []
  m_FloatCurves: []
  m_PPtrCurves:
  - curve:
    - time: 0
      value: {fileID: 21300000, guid: 48c0f402fe81f1544bfb3c4153bf1fd5, type: 3}
    - time: 0.16666667
      value: {fileID: 21300000, guid: dfa4a3b95bb770a4da6520673220b02d, type: 3}
    - time: 0.33333334
      value: {fileID: 21300000, guid: 8debeacc834d3544298fbbdb7476ffda, type: 3}
    - time: 0.5
      value: {fileID: 21300000, guid: 8dee73b657cd18447be76b4ec2d71a6d, type: 3}
    - time: 0.6666667
      value: {fileID: 21300000, guid: a407a3d4ae4fc4b4599d555b28d26e95, type: 3}
    - time: 0.8333333
      value: {fileID: 21300000, guid: f541fbbcdfbecdd42a66dc601a6e719f, type: 3}
    - time: 1
      value: {fileID: 21300000, guid: e87057a4a59c1124c9d2a2076dbc2b7f, type: 3}
    - time: 1.1666666
      value: {fileID: 21300000, guid: 265aa4d499ea4ab4d90a2cfca7ecf4d0, type: 3}
    - time: 1.3333334
      value: {fileID: 21300000, guid: 87297cabb3565804bb425df0c893e93b, type: 3}
    attribute: m_Sprite
    path: 
    classID: 212
    script: {fileID: 0}
  m_SampleRate: 60
  m_WrapMode: 0
  m_Bounds:
    m_Center: {x: 0, y: 0, z: 0}
    m_Extent: {x: 0, y: 0, z: 0}
  m_ClipBindingConstant:
    genericBindings:
    - serializedVersion: 2
      path: 0
      attribute: 0
      script: {fileID: 0}
      typeID: 212
      customType: 23
      isPPtrCurve: 1
    pptrCurveMapping:
    - {fileID: 21300000, guid: 48c0f402fe81f1544bfb3c4153bf1fd5, type: 3}
    - {fileID: 21300000, guid: dfa4a3b95bb770a4da6520673220b02d, type: 3}
    - {fileID: 21300000, guid: 8debeacc834d3544298fbbdb7476ffda, type: 3}
    - {fileID: 21300000, guid: 8dee73b657cd18447be76b4ec2d71a6d, type: 3}
    - {fileID: 21300000, guid: a407a3d4ae4fc4b4599d555b28d26e95, type: 3}
    - {fileID: 21300000, guid: f541fbbcdfbecdd42a66dc601a6e719f, type: 3}
    - {fileID: 21300000, guid: e87057a4a59c1124c9d2a2076dbc2b7f, type: 3}
    - {fileID: 21300000, guid: 265aa4d499ea4ab4d90a2cfca7ecf4d0, type: 3}
    - {fileID: 21300000, guid: 87297cabb3565804bb425df0c893e93b, type: 3}
  m_AnimationClipSettings:
    serializedVersion: 2
    m_AdditiveReferencePoseClip: {fileID: 0}
    m_AdditiveReferencePoseTime: 0
    m_StartTime: 0
    m_StopTime: 1.35
    m_OrientationOffsetY: 0
    m_Level: 0
    m_CycleOffset: 0
    m_HasAdditiveReferencePose: 0
    m_LoopTime: 1
    m_LoopBlend: 0
    m_LoopBlendOrientation: 0
    m_LoopBlendPositionY: 0
    m_LoopBlendPositionXZ: 0
    m_KeepOriginalOrientation: 0
    m_KeepOriginalPositionY: 1
    m_KeepOriginalPositionXZ: 0
    m_HeightFromFeet: 0
    m_Mirror: 0
  m_EditorCurves: []
  m_EulerEditorCurves: []
  m_HasGenericRootTransform: 0
  m_HasMotionFloatCurves: 0
  m_Events: []
